<svg width="860" height="639" viewBox="0 0 860 639" fill="none" xmlns="http://www.w3.org/2000/svg">
<path opacity="0.2" d="M308.08 576C91.5847 576 37.8379 530.176 37.8379 363.96C37.8378 197.744 213.342 63.0001 429.838 63.0001C646.333 63 821.838 197.744 821.838 363.96C821.838 530.176 524.576 576 308.08 576Z" fill="white"/>
<path fill-rule="evenodd" clip-rule="evenodd" d="M351.359 593.286C352.027 593.171 352.698 593.056 353.369 592.941C354.022 592.828 354.676 592.715 355.331 592.602L354.989 590.631C354.335 590.745 353.682 590.857 353.03 590.97C352.359 591.085 351.69 591.2 351.022 591.314L351.359 593.286ZM347.364 593.962L347.033 591.99C346.653 592.054 346.273 592.117 345.895 592.18C344.953 592.338 344.015 592.494 343.08 592.648L343.406 594.621C344.719 594.405 346.039 594.185 347.364 593.962ZM339.483 595.263L339.163 593.289C337.863 593.499 336.57 593.707 335.282 593.912L335.596 595.887C336.886 595.682 338.181 595.474 339.483 595.263ZM331.643 596.509L331.335 594.533C331.004 594.585 330.672 594.636 330.341 594.688C329.337 594.843 328.337 594.997 327.34 595.149L327.641 597.126C328.969 596.924 330.303 596.718 331.643 596.509ZM323.678 597.723L323.384 595.745C322.071 595.94 320.765 596.132 319.466 596.321L319.753 598.3C321.055 598.111 322.363 597.919 323.678 597.723ZM315.867 598.857L315.586 596.877C314.247 597.067 312.915 597.253 311.59 597.435L311.863 599.416C313.191 599.234 314.525 599.047 315.867 598.857ZM307.863 599.958L307.599 597.976C306.275 598.152 304.958 598.325 303.649 598.494L303.905 600.478C305.218 600.308 306.537 600.135 307.863 599.958ZM299.988 600.975L299.741 598.991C298.424 599.155 297.115 599.315 295.814 599.472L296.052 601.458C297.357 601.301 298.669 601.14 299.988 600.975ZM292.022 601.932L291.793 599.946C290.926 600.046 290.063 600.144 289.202 600.24C288.74 600.292 288.278 600.343 287.818 600.394L288.037 602.382C289.358 602.236 290.686 602.086 292.022 601.932ZM284.096 602.806L283.887 600.817C282.583 600.954 281.287 601.087 279.997 601.216L280.196 603.206C281.489 603.077 282.789 602.944 284.096 602.806ZM276.144 603.598L275.957 601.607C274.618 601.733 273.287 601.854 271.964 601.97L272.14 603.963C273.466 603.846 274.801 603.725 276.144 603.598ZM268.184 604.298L268.021 602.305C266.714 602.412 265.416 602.514 264.125 602.611L264.275 604.605C265.57 604.508 266.873 604.405 268.184 604.298ZM260.222 604.897L260.085 602.902C258.744 602.993 257.411 603.08 256.087 603.161L256.21 605.157C257.538 605.076 258.876 604.989 260.222 604.897ZM252.249 605.385L252.142 603.388C250.829 603.459 249.526 603.524 248.231 603.584L248.323 605.582C249.623 605.522 250.932 605.456 252.249 605.385ZM244.26 605.753L244.185 603.754C242.845 603.805 241.516 603.849 240.195 603.888L240.254 605.887C241.58 605.848 242.915 605.804 244.26 605.753ZM236.303 605.985L236.262 603.985C234.932 604.012 233.611 604.033 232.3 604.047L232.321 606.047C233.639 606.033 234.966 606.012 236.303 605.985ZM228.277 606.07L228.275 604.07C226.944 604.071 225.623 604.065 224.312 604.053L224.293 606.053C225.611 606.065 226.939 606.071 228.277 606.07ZM220.368 605.993L220.409 603.994C219.054 603.966 217.71 603.93 216.377 603.887L216.312 605.886C217.653 605.929 219.005 605.965 220.368 605.993ZM212.307 605.732L212.396 603.734C211.08 603.675 209.775 603.608 208.48 603.534L208.366 605.531C209.669 605.606 210.982 605.673 212.307 605.732ZM204.362 605.274L204.504 603.279C203.165 603.183 201.837 603.079 200.521 602.967L200.351 604.959C201.676 605.073 203.013 605.178 204.362 605.274ZM196.409 604.592L196.609 602.602C195.285 602.469 193.973 602.326 192.673 602.174L192.441 604.16C193.751 604.314 195.074 604.457 196.409 604.592ZM188.444 603.659L188.71 601.677C187.401 601.501 186.105 601.316 184.822 601.121L184.521 603.098C185.816 603.295 187.124 603.482 188.444 603.659ZM180.579 602.461L180.917 600.49C179.597 600.264 178.291 600.027 176.998 599.779L176.621 601.743C177.927 601.993 179.247 602.233 180.579 602.461ZM172.742 600.958L173.159 599.002C171.855 598.724 170.566 598.435 169.29 598.133L168.83 600.08C170.12 600.384 171.424 600.677 172.742 600.958ZM164.94 599.114L165.445 597.178C164.177 596.848 162.924 596.505 161.684 596.151L161.134 598.073C162.389 598.433 163.658 598.779 164.94 599.114ZM157.269 596.914L157.869 595.006C156.608 594.61 155.362 594.2 154.13 593.777L153.481 595.669C154.729 596.098 155.992 596.512 157.269 596.914ZM149.739 594.326L150.44 592.453C149.196 591.987 147.967 591.507 146.753 591.012L145.997 592.863C147.23 593.366 148.477 593.854 149.739 594.326ZM142.346 591.311L143.156 589.482C141.946 588.946 140.751 588.395 139.572 587.828L138.705 589.63C139.904 590.206 141.117 590.766 142.346 591.311ZM135.135 587.844L136.059 586.07C134.895 585.464 133.747 584.843 132.614 584.205L131.633 585.948C132.785 586.596 133.953 587.228 135.135 587.844ZM128.177 583.926L129.216 582.217C128.098 581.537 126.996 580.841 125.908 580.128L124.812 581.801C125.918 582.526 127.04 583.235 128.177 583.926ZM121.504 579.55L122.657 577.917C121.588 577.161 120.533 576.389 119.493 575.599L118.283 577.192C119.342 577.996 120.415 578.782 121.504 579.55ZM115.148 574.724L116.412 573.174C115.399 572.347 114.4 571.503 113.415 570.641L112.098 572.146C113.1 573.023 114.117 573.883 115.148 574.724ZM109.136 569.463L110.504 568.004C109.554 567.113 108.617 566.203 107.693 565.276L106.276 566.688C107.216 567.631 108.169 568.556 109.136 569.463ZM103.498 563.805L104.961 562.441C104.074 561.49 103.199 560.521 102.337 559.534L100.831 560.85C101.707 561.853 102.596 562.838 103.498 563.805ZM98.2502 557.799L99.7972 556.531C98.969 555.521 98.1526 554.492 97.3476 553.446L95.7626 554.666C96.5798 555.728 97.409 556.772 98.2502 557.799ZM93.3841 551.479L95.0042 550.306C94.2341 549.242 93.4748 548.161 92.7263 547.062L91.0734 548.189C91.8326 549.303 92.6027 550.4 93.3841 551.479ZM88.8845 544.88L90.567 543.799C89.8608 542.7 89.1644 541.585 88.4777 540.452L86.7677 541.49C87.4633 542.636 88.1687 543.767 88.8845 544.88ZM84.7297 538.033L86.4649 537.039C85.8205 535.914 85.1848 534.774 84.5577 533.618L82.7998 534.572C83.4341 535.741 84.0774 536.895 84.7297 538.033ZM80.9231 531.017L82.7021 530.103C82.1064 528.944 81.5188 527.769 80.939 526.58L79.1411 527.456C79.7269 528.658 80.3209 529.845 80.9231 531.017ZM77.4348 523.863L79.2498 523.023C78.6942 521.822 78.1461 520.607 77.6053 519.377L75.7745 520.182C76.3203 521.423 76.8737 522.65 77.4348 523.863ZM74.2148 516.546L76.0598 515.773C75.5549 514.567 75.0566 513.347 74.5648 512.113L72.707 512.854C73.2029 514.098 73.7055 515.329 74.2148 516.546ZM71.2387 509.08L73.1084 508.37C72.6489 507.161 72.1953 505.938 71.7473 504.703L69.8672 505.385C70.3185 506.63 70.7757 507.861 71.2387 509.08ZM68.5339 501.624L70.4237 500.97C69.9881 499.712 69.5579 498.442 69.1331 497.159L67.2344 497.787C67.6621 499.079 68.0952 500.358 68.5339 501.624ZM66.0194 494.037L67.9259 493.433C67.5298 492.184 67.1387 490.923 66.7521 489.65L64.8384 490.231C65.2273 491.512 65.6209 492.78 66.0194 494.037ZM63.6861 486.355L65.6065 485.796C65.2421 484.544 64.882 483.281 64.5261 482.007L62.5998 482.545C62.9576 483.826 63.3197 485.096 63.6861 486.355ZM61.5512 478.714L63.4829 478.196C63.1392 476.915 62.7994 475.622 62.4635 474.319L60.5269 474.818C60.8643 476.128 61.2057 477.426 61.5512 478.714ZM59.5457 470.937L61.4869 470.455C61.1735 469.191 60.8636 467.917 60.557 466.633L58.6117 467.097C58.9196 468.387 59.2309 469.667 59.5457 470.937ZM57.6982 463.198L59.6474 462.749C59.3475 461.445 59.0508 460.13 58.7574 458.806L56.8048 459.238C57.0993 460.568 57.3971 461.888 57.6982 463.198ZM55.9682 455.394L57.9239 454.976C57.6496 453.693 57.3781 452.4 57.1093 451.099L55.1506 451.503C55.4203 452.809 55.6928 454.106 55.9682 455.394ZM54.3499 447.557L56.3113 447.165C56.0517 445.864 55.7947 444.553 55.5403 443.233L53.5765 443.611C53.8317 444.935 54.0895 446.25 54.3499 447.557ZM52.842 439.738L54.8081 439.371C54.5663 438.075 54.3268 436.771 54.0897 435.458L52.1215 435.813C52.3594 437.13 52.5995 438.438 52.842 439.738ZM51.4148 431.838L53.3849 431.493C53.2686 430.828 53.1528 430.16 53.0375 429.491C52.9242 428.833 52.8138 428.175 52.7062 427.517L50.7325 427.839C50.8409 428.503 50.9522 429.167 51.0665 429.83C51.1821 430.502 51.2981 431.171 51.4148 431.838ZM50.1167 423.857L52.0957 423.568C51.9038 422.252 51.7233 420.936 51.5544 419.62L49.5707 419.875C49.7411 421.202 49.9231 422.529 50.1167 423.857ZM49.094 415.895L51.0818 415.674C50.9349 414.352 50.7994 413.029 50.6755 411.708L48.6843 411.894C48.8093 413.228 48.9459 414.561 49.094 415.895ZM48.343 407.883L50.3371 407.731C50.2358 406.405 50.146 405.081 50.0676 403.756L48.0711 403.875C48.1502 405.21 48.2408 406.546 48.343 407.883ZM47.8684 399.869L49.8666 399.785C49.8107 398.455 49.7663 397.126 49.7333 395.798L47.7339 395.848C47.7672 397.187 47.812 398.528 47.8684 399.869ZM47.6683 391.826L49.6683 391.81C49.6581 390.482 49.6592 389.154 49.6715 387.827L47.6716 387.808C47.6591 389.146 47.658 390.486 47.6683 391.826ZM47.7433 383.795L49.7426 383.848C49.7777 382.518 49.8241 381.189 49.8817 379.861L47.8836 379.774C47.8255 381.114 47.7787 382.454 47.7433 383.795ZM48.0921 375.759L50.0884 375.88C50.1685 374.554 50.2597 373.229 50.3622 371.905L48.3681 371.751C48.2649 373.086 48.1728 374.422 48.0921 375.759ZM48.7116 367.748L50.7028 367.935C50.8274 366.612 50.9632 365.291 51.11 363.97L49.1222 363.749C48.9742 365.081 48.8373 366.414 48.7116 367.748ZM49.5995 359.758L51.5833 360.012C51.7521 358.694 51.9318 357.377 52.1224 356.062L50.1431 355.775C49.9509 357.101 49.7697 358.429 49.5995 359.758ZM50.752 351.803L52.7264 352.122C52.9384 350.811 53.1612 349.502 53.3947 348.194L51.4258 347.842C51.1904 349.161 50.9658 350.481 50.752 351.803ZM52.1645 343.891L54.1273 344.274C54.3823 342.969 54.6479 341.666 54.9241 340.364L52.9676 339.949C52.6892 341.262 52.4215 342.575 52.1645 343.891ZM53.8328 336.027L55.7823 336.473C56.0785 335.179 56.3852 333.887 56.7024 332.596L54.7601 332.119C54.4405 333.42 54.1314 334.722 53.8328 336.027ZM55.7505 328.222L57.6849 328.73C58.0228 327.443 58.371 326.158 58.7295 324.874L56.8033 324.336C56.4419 325.629 56.091 326.925 55.7505 328.222ZM57.9128 320.48L59.8305 321.047C60.2074 319.775 60.5945 318.504 60.9915 317.235L59.0828 316.638C58.6827 317.916 58.2926 319.197 57.9128 320.48ZM60.3134 312.808L62.2128 313.434C62.6298 312.17 63.0567 310.907 63.4936 309.647L61.6039 308.992C61.1637 310.262 60.7336 311.534 60.3134 312.808ZM62.9453 305.214L64.8249 305.897C65.2784 304.65 65.7417 303.404 66.2147 302.16L64.3453 301.449C63.8689 302.702 63.4021 303.957 62.9453 305.214ZM65.8038 297.698L67.6625 298.437C68.1539 297.2 68.6549 295.965 69.1655 294.733L67.3178 293.967C66.8035 295.209 66.2988 296.452 65.8038 297.698ZM68.8786 290.275L70.7151 291.067C71.241 289.848 71.7763 288.631 72.3208 287.416L70.4958 286.598C69.9474 287.821 69.4083 289.047 68.8786 290.275ZM72.169 282.935L73.9822 283.779C74.5436 282.573 75.1142 281.369 75.6938 280.168L73.8927 279.299C73.3089 280.509 72.7344 281.721 72.169 282.935ZM75.6596 275.701L77.4487 276.595C78.0426 275.407 78.6455 274.221 79.2572 273.038L77.4806 272.119C76.8647 273.311 76.2576 274.505 75.6596 275.701ZM79.355 268.554L81.119 269.496C81.7458 268.323 82.3815 267.153 83.0258 265.985L81.2748 265.019C80.6261 266.195 79.9861 267.373 79.355 268.554ZM83.2345 261.523L84.9726 262.512C85.6301 261.357 86.2961 260.205 86.9707 259.056L85.2458 258.044C84.5669 259.2 83.8964 260.36 83.2345 261.523ZM87.308 254.582L89.0196 255.617C89.7077 254.478 90.4041 253.343 91.1089 252.211L89.4109 251.154C88.7016 252.294 88.0007 253.436 87.308 254.582ZM91.5503 247.765L93.2347 248.844C93.9514 247.724 94.6763 246.608 95.4093 245.494L93.7387 244.394C93.0011 245.515 92.2717 246.639 91.5503 247.765ZM95.9757 241.042L97.6323 242.163C98.3776 241.061 99.1309 239.962 99.8921 238.866L98.2495 237.725C97.4836 238.827 96.7257 239.933 95.9757 241.042ZM100.556 234.448L102.184 235.609C102.956 234.527 103.736 233.447 104.523 232.371L102.909 231.19C102.117 232.273 101.332 233.359 100.556 234.448ZM105.308 227.952L106.907 229.152C107.706 228.087 108.513 227.026 109.327 225.967L107.741 224.748C106.923 225.813 106.111 226.881 105.308 227.952ZM110.202 221.587L111.773 222.825C112.596 221.78 113.426 220.739 114.263 219.702L112.707 218.446C111.865 219.489 111.03 220.536 110.202 221.587ZM115.256 215.325L116.798 216.599C117.647 215.572 118.503 214.548 119.366 213.527L117.84 212.235C116.971 213.262 116.11 214.292 115.256 215.325ZM120.443 209.193L121.955 210.502C122.825 209.497 123.702 208.496 124.586 207.497L123.089 206.172C122.2 207.175 121.318 208.182 120.443 209.193ZM125.777 203.171L127.259 204.514C128.155 203.524 129.058 202.538 129.968 201.556L128.501 200.197C127.586 201.185 126.678 202.176 125.777 203.171ZM131.236 197.276L132.689 198.651C133.602 197.686 134.522 196.724 135.449 195.766L134.012 194.376C133.08 195.339 132.155 196.305 131.236 197.276ZM136.827 191.497L138.249 192.904C139.189 191.953 140.136 191.006 141.089 190.063L139.682 188.641C138.724 189.59 137.772 190.542 136.827 191.497ZM142.541 185.841L143.933 187.277C144.887 186.352 145.847 185.432 146.813 184.515L145.436 183.064C144.465 183.986 143.5 184.911 142.541 185.841ZM148.369 180.31L149.731 181.775C150.709 180.865 151.694 179.959 152.685 179.057L151.339 177.578C150.343 178.485 149.353 179.395 148.369 180.31ZM154.32 174.893L155.651 176.386C156.642 175.502 157.639 174.623 158.641 173.747L157.326 172.241C156.318 173.121 155.316 174.005 154.32 174.893ZM160.367 169.611L161.667 171.131C162.682 170.263 163.702 169.398 164.728 168.538L163.443 167.005C162.412 167.87 161.386 168.739 160.367 169.611ZM166.539 164.435L167.809 165.981C168.834 165.139 169.864 164.3 170.9 163.466L169.646 161.908C168.605 162.747 167.569 163.589 166.539 164.435ZM172.787 159.405L174.026 160.974C175.073 160.148 176.126 159.325 177.184 158.507L175.96 156.925C174.897 157.747 173.839 158.574 172.787 159.405ZM179.166 154.47L180.374 156.064C181.43 155.263 182.492 154.467 183.559 153.674L182.366 152.069C181.294 152.865 180.227 153.666 179.166 154.47ZM185.598 149.691L186.775 151.308C187.852 150.523 188.935 149.742 190.023 148.966L188.861 147.338C187.768 148.118 186.68 148.903 185.598 149.691ZM192.156 145.009L193.302 146.648C194.392 145.886 195.487 145.127 196.587 144.373L195.456 142.723C194.351 143.481 193.251 144.243 192.156 145.009ZM198.771 140.472L199.887 142.132C200.992 141.389 202.102 140.65 203.217 139.916L202.117 138.246C200.997 138.984 199.881 139.726 198.771 140.472ZM205.492 136.044L206.576 137.725C207.699 137 208.826 136.279 209.958 135.563L208.889 133.873C207.752 134.592 206.619 135.316 205.492 136.044ZM212.281 131.748L213.335 133.448C214.465 132.747 215.6 132.05 216.74 131.358L215.701 129.648C214.556 130.344 213.416 131.044 212.281 131.748ZM219.149 127.574L220.173 129.293C221.321 128.609 222.475 127.929 223.633 127.254L222.625 125.526C221.462 126.204 220.303 126.887 219.149 127.574ZM226.102 123.519L227.094 125.255C228.247 124.597 229.405 123.942 230.567 123.291L229.59 121.546C228.423 122.199 227.26 122.857 226.102 123.519ZM233.105 119.599L234.066 121.353C235.237 120.711 236.412 120.074 237.592 119.44L236.646 117.678C235.461 118.314 234.281 118.954 233.105 119.599ZM240.21 115.785L241.14 117.556C242.315 116.939 243.493 116.326 244.675 115.717L243.76 113.939C242.573 114.55 241.389 115.165 240.21 115.785ZM247.336 112.119L248.235 113.905C249.426 113.305 250.621 112.71 251.82 112.119L250.936 110.325C249.732 110.919 248.532 111.516 247.336 112.119ZM254.56 108.558L255.429 110.359C256.63 109.78 257.835 109.206 259.044 108.635L258.19 106.827C256.976 107.399 255.766 107.976 254.56 108.558ZM261.82 105.133L262.658 106.949C263.867 106.391 265.079 105.838 266.296 105.289L265.473 103.466C264.252 104.017 263.034 104.573 261.82 105.133ZM269.15 101.826C270.379 101.284 271.612 100.746 272.849 100.213L273.641 102.05C272.409 102.581 271.181 103.116 269.957 103.656L269.15 101.826ZM276.538 98.6417L277.314 100.485C278.539 99.9692 279.768 99.4579 281 98.951L280.239 97.1014C279.002 97.6103 277.768 98.1238 276.538 98.6417ZM283.962 95.5882L284.707 97.4441C285.947 96.9463 287.19 96.4531 288.436 95.9644L287.706 94.1024C286.454 94.5931 285.206 95.0884 283.962 95.5882ZM291.471 92.6446L292.185 94.5126C293.424 94.0386 294.667 93.5691 295.913 93.1042L295.214 91.2304C293.963 91.6972 292.715 92.1686 291.471 92.6446ZM298.978 89.8436L299.661 91.723C300.914 91.2672 302.17 90.8159 303.43 90.3693L302.762 88.4843C301.497 88.9328 300.235 89.3859 298.978 89.8436ZM306.566 87.1528L307.219 89.0432C308.482 88.607 309.748 88.1753 311.017 87.7484L310.38 85.8527C309.105 86.2814 307.834 86.7148 306.566 87.1528ZM314.179 84.5918L314.802 86.4925C316.066 86.0785 317.334 85.6691 318.605 85.2643L317.998 83.3586C316.722 83.765 315.449 84.1761 314.179 84.5918ZM321.836 82.1534L322.427 84.0639C323.704 83.6684 324.985 83.2776 326.268 82.8915L325.692 80.9763C324.403 81.3639 323.118 81.7563 321.836 82.1534ZM329.55 79.8325L330.111 81.7523C331.385 81.3799 332.663 81.0121 333.944 80.649L333.398 78.7249C332.112 79.0894 330.83 79.4587 329.55 79.8325ZM337.265 77.6453L337.795 79.5738C339.081 79.22 340.371 78.871 341.663 78.5266L341.148 76.594C339.851 76.9397 338.556 77.2902 337.265 77.6453ZM345.05 75.5712L345.549 77.5078C346.84 77.1748 348.134 76.8465 349.431 76.523L348.946 74.5825C347.645 74.9073 346.346 75.2369 345.05 75.5712ZM352.836 73.628L353.305 75.5722C354.6 75.26 355.897 74.9525 357.197 74.6497L356.743 72.7019C355.438 73.0058 354.136 73.3146 352.836 73.628ZM360.666 71.8043L361.104 73.7557C362.409 73.4624 363.717 73.174 365.028 72.8903L364.605 70.9355C363.289 71.2203 361.976 71.5099 360.666 71.8043ZM368.536 70.1007L368.944 72.0586C370.244 71.7877 371.547 71.5215 372.853 71.2601L372.46 69.299C371.149 69.5615 369.841 69.8287 368.536 70.1007ZM376.4 68.526L376.777 70.49C378.088 70.2381 379.401 69.991 380.717 69.7487L380.355 67.7818C379.034 68.025 377.716 68.2731 376.4 68.526ZM384.325 67.0665L384.672 69.0362C385.332 68.9199 385.993 68.8048 386.655 68.6909C387.316 68.577 387.977 68.4644 388.638 68.3532L388.307 66.3809C387.643 66.4926 386.979 66.6055 386.315 66.7199C385.651 66.8342 384.988 66.9498 384.325 67.0665ZM392.287 65.7273L392.603 67.7021C393.924 67.4904 395.245 67.2841 396.564 67.0832L396.263 65.106C394.938 65.3077 393.613 65.5148 392.287 65.7273ZM400.234 64.5169L400.52 66.4964C401.838 66.3061 403.155 66.1212 404.472 65.9415L404.201 63.9599C402.88 64.1402 401.558 64.3259 400.234 64.5169ZM408.185 63.432L408.44 65.4157C409.77 65.2447 411.099 65.0792 412.427 64.919L412.188 62.9334C410.854 63.0942 409.52 63.2604 408.185 63.432ZM416.185 62.4673L416.409 64.4547C417.735 64.3054 419.06 64.1614 420.384 64.0227L420.176 62.0336C418.847 62.1728 417.516 62.3173 416.185 62.4673ZM424.161 61.6322L424.354 63.6229C425.684 63.4941 427.013 63.3708 428.341 63.2529L428.164 61.2607C426.831 61.3791 425.497 61.5029 424.161 61.6322ZM432.183 60.9199L432.344 62.9134C433.677 62.8057 435.009 62.7034 436.34 62.6065L436.195 60.6117C434.859 60.709 433.522 60.8117 432.183 60.9199ZM440.2 60.3361L440.329 62.3319C441.657 62.2458 442.984 62.165 444.31 62.0897L444.197 60.0929C442.866 60.1686 441.533 60.2496 440.2 60.3361ZM448.215 59.8806L448.313 61.8782C449.651 61.8128 450.989 61.7529 452.324 61.6985L452.243 59.7001C450.902 59.7548 449.559 59.8149 448.215 59.8806ZM456.263 59.5525L456.328 61.5515C457.661 61.5079 458.993 61.4697 460.323 61.437L460.274 59.4376C458.938 59.4705 457.601 59.5088 456.263 59.5525ZM464.277 59.3551L464.31 61.3549C465.649 61.3327 466.986 61.316 468.322 61.3048L468.306 59.3048C466.964 59.3161 465.621 59.3329 464.277 59.3551ZM472.336 59.2874L472.337 61.2874C473.673 61.287 475.008 61.2922 476.341 61.3028L476.357 59.3028C475.018 59.2922 473.678 59.287 472.336 59.2874ZM480.368 59.3511L480.335 61.3508C481.665 61.3722 482.993 61.3991 484.32 61.4313L484.368 59.4319C483.036 59.3995 481.703 59.3726 480.368 59.3511ZM488.404 59.5468L488.338 61.5457C489.677 61.5894 491.013 61.6385 492.347 61.6931L492.429 59.6948C491.089 59.64 489.747 59.5906 488.404 59.5468ZM496.444 59.8758L496.345 61.8734C497.676 61.939 499.005 62.01 500.331 62.0864L500.446 60.0897C499.114 60.013 497.78 59.9417 496.444 59.8758ZM504.449 60.3371L504.317 62.3328C505.655 62.4211 506.992 62.515 508.326 62.6144L508.474 60.6199C507.135 60.5201 505.793 60.4258 504.449 60.3371ZM512.488 60.9359L512.322 62.929C513.652 63.0394 514.98 63.1553 516.306 63.2766L516.488 61.285C515.157 61.1631 513.823 61.0467 512.488 60.9359ZM520.475 61.667L520.276 63.657C521.606 63.7901 522.934 63.9288 524.259 64.0729L524.475 62.0846C523.144 61.9399 521.811 61.8007 520.475 61.667ZM528.482 62.5378L528.249 64.5241C529.576 64.6801 530.901 64.8415 532.224 65.0085L532.475 63.0242C531.146 62.8565 529.815 62.6944 528.482 62.5378ZM536.453 63.5438L536.185 65.5258C537.503 65.7038 538.819 65.8872 540.132 66.076L540.416 64.0964C539.098 63.9067 537.777 63.7225 536.453 63.5438ZM544.408 64.6885L544.106 66.6655C545.429 66.8678 546.75 67.0755 548.068 67.2888L548.388 65.3145C547.064 65.1003 545.737 64.8916 544.408 64.6885ZM552.351 65.9739L552.014 67.9453C553.327 68.1697 554.637 68.3995 555.944 68.6348L556.299 66.6665C554.986 66.4301 553.67 66.1993 552.351 65.9739ZM560.246 67.3953L559.874 69.3604C561.192 69.6096 562.506 69.8645 563.817 70.1249L564.207 68.1632C562.89 67.9016 561.569 67.6456 560.246 67.3953ZM568.15 68.9646L567.743 70.9228C569.049 71.1942 570.351 71.4713 571.651 71.7538L572.076 69.7995C570.77 69.5156 569.462 69.2374 568.15 68.9646ZM575.983 70.6675L575.54 72.6179C576.847 72.9144 578.15 73.2165 579.451 73.5241L579.911 71.5778C578.605 71.2688 577.295 70.9653 575.983 70.6675ZM583.828 72.5237L583.349 74.4656C584.646 74.785 585.939 75.11 587.229 75.4404L587.725 73.503C586.429 73.171 585.13 72.8446 583.828 72.5237ZM591.603 74.5158L591.088 76.4485C592.377 76.7916 593.663 77.1402 594.945 77.4944L595.477 75.5665C594.189 75.2107 592.898 74.8605 591.603 74.5158ZM599.361 76.6591L598.81 78.5818C600.095 78.9499 601.377 79.3235 602.654 79.7027L603.223 77.7854C601.94 77.4044 600.652 77.0289 599.361 76.6591ZM607.064 78.9451L606.477 80.857C607.748 81.2472 609.014 81.6431 610.278 82.0444L610.883 80.1382C609.614 79.735 608.341 79.3373 607.064 78.9451ZM614.725 81.3793L614.101 83.2795C615.372 83.697 616.639 84.1201 617.903 84.5488L618.545 82.6548C617.276 82.224 616.002 81.7989 614.725 81.3793ZM622.342 83.964L621.681 85.8515C622.937 86.2913 624.188 86.7367 625.436 87.1875L626.116 85.3066C624.862 84.8535 623.604 84.406 622.342 83.964ZM629.893 86.6931L629.194 88.5671C630.449 89.0348 631.7 89.5081 632.946 89.9871L633.664 88.1201C632.411 87.6388 631.154 87.1631 629.893 86.6931ZM637.409 89.581L636.673 91.4406C637.911 91.9306 639.144 92.4263 640.373 92.9274L641.128 91.0754C639.893 90.5717 638.653 90.0736 637.409 89.581ZM644.836 92.6091L644.062 94.4533C645.297 94.9719 646.529 95.4962 647.755 96.0261L648.548 94.1901C647.315 93.6574 646.078 93.1305 644.836 92.6091ZM652.233 95.8049L651.421 97.6325C652.638 98.1736 653.851 98.7202 655.059 99.2724L655.891 97.4534C654.676 96.8983 653.457 96.3488 652.233 95.8049ZM659.522 99.1365L658.671 100.947C659.885 101.517 661.094 102.093 662.297 102.674L663.167 100.874C661.957 100.289 660.742 99.7099 659.522 99.1365ZM666.783 102.644L665.894 104.436C667.087 105.029 668.276 105.627 669.46 106.231L670.369 104.449C669.178 103.842 667.983 103.24 666.783 102.644ZM673.924 106.287L672.996 108.059C674.182 108.68 675.362 109.307 676.538 109.94L677.486 108.179C676.304 107.543 675.116 106.912 673.924 106.287ZM681.022 110.108L680.054 111.858C681.221 112.503 682.383 113.154 683.539 113.81L684.526 112.071C683.363 111.411 682.195 110.757 681.022 110.108ZM687.997 114.067L686.99 115.795C688.145 116.468 689.295 117.147 690.438 117.831L691.465 116.115C690.315 115.426 689.159 114.744 687.997 114.067ZM694.911 118.203L693.864 119.908C695.001 120.605 696.131 121.309 697.256 122.018L698.322 120.326C697.191 119.613 696.054 118.905 694.911 118.203ZM701.699 122.482L700.612 124.161C701.733 124.886 702.848 125.617 703.957 126.353L705.064 124.687C703.948 123.947 702.826 123.211 701.699 122.482ZM708.408 126.937L707.281 128.59C708.383 129.341 709.479 130.097 710.568 130.859L711.715 129.22C710.618 128.454 709.516 127.692 708.408 126.937ZM714.984 131.537L713.817 133.162C714.901 133.94 715.979 134.724 717.05 135.513L718.236 133.903C717.158 133.109 716.074 132.32 714.984 131.537ZM721.465 136.314L720.259 137.909C721.322 138.713 722.379 139.523 723.428 140.338L724.655 138.759C723.599 137.938 722.535 137.123 721.465 136.314ZM727.805 141.237L726.558 142.801C727.601 143.632 728.637 144.469 729.666 145.312L730.933 143.764C729.897 142.916 728.854 142.074 727.805 141.237ZM734.034 146.337L732.747 147.868C733.767 148.725 734.78 149.588 735.786 150.457L737.093 148.943C736.081 148.069 735.061 147.2 734.034 146.337ZM740.109 151.582L738.782 153.079C739.78 153.964 740.771 154.854 741.754 155.75L743.101 154.272C742.111 153.37 741.114 152.473 740.109 151.582ZM746.06 157.005L744.693 158.465C745.665 159.375 746.63 160.291 747.587 161.213L748.974 159.772C748.01 158.844 747.039 157.922 746.06 157.005ZM751.842 162.571L750.435 163.993C751.383 164.931 752.324 165.875 753.256 166.824L754.683 165.422C753.744 164.466 752.797 163.516 751.842 162.571ZM757.485 168.314L756.038 169.695C756.958 170.658 757.869 171.626 758.773 172.599L760.239 171.239C759.329 170.258 758.411 169.283 757.485 168.314ZM762.944 174.196L761.459 175.536C762.352 176.526 763.237 177.522 764.114 178.524L765.619 177.206C764.736 176.197 763.844 175.194 762.944 174.196ZM768.248 180.253L766.724 181.548C767.585 182.562 768.439 183.581 769.283 184.605L770.826 183.333C769.975 182.301 769.116 181.274 768.248 180.253ZM773.354 186.445L771.792 187.694C772.625 188.736 773.45 189.783 774.266 190.835L775.846 189.609C775.024 188.549 774.193 187.494 773.354 186.445ZM778.287 192.807L776.688 194.008C777.486 195.071 778.276 196.139 779.057 197.213L780.674 196.036C779.887 194.955 779.092 193.878 778.287 192.807ZM783.01 199.3L781.374 200.451C782.142 201.54 782.9 202.635 783.648 203.735L785.302 202.61C784.547 201.501 783.783 200.398 783.01 199.3ZM787.538 205.951L785.867 207.05C786.598 208.161 787.319 209.276 788.031 210.396L789.719 209.324C789.001 208.194 788.274 207.07 787.538 205.951ZM791.846 212.731L790.141 213.776C790.837 214.911 791.523 216.05 792.2 217.195L793.921 216.177C793.239 215.023 792.548 213.875 791.846 212.731ZM795.939 219.654L794.201 220.644C794.859 221.798 795.507 222.958 796.145 224.122L797.899 223.161C797.255 221.987 796.602 220.818 795.939 219.654ZM799.801 226.701L798.031 227.633C798.651 228.809 799.261 229.99 799.861 231.176L801.645 230.273C801.04 229.077 800.426 227.886 799.801 226.701ZM803.43 233.874L801.631 234.747C802.21 235.943 802.78 237.143 803.34 238.348L805.154 237.505C804.59 236.29 804.015 235.08 803.43 233.874ZM806.817 241.163L804.989 241.975C805.528 243.189 806.057 244.407 806.576 245.63L808.418 244.848C807.894 243.615 807.36 242.387 806.817 241.163ZM809.957 248.563L808.103 249.313C808.601 250.545 809.089 251.782 809.567 253.023L811.434 252.305C810.952 251.053 810.459 249.805 809.957 248.563ZM812.843 256.063L810.965 256.749C811.42 257.996 811.865 259.247 812.3 260.502L814.19 259.848C813.752 258.581 813.303 257.32 812.843 256.063ZM815.473 263.66L813.572 264.282C813.986 265.545 814.388 266.812 814.78 268.084L816.692 267.495C816.296 266.212 815.89 264.934 815.473 263.66ZM817.84 271.338L815.919 271.894C816.288 273.168 816.646 274.447 816.994 275.729L818.924 275.206C818.574 273.912 818.212 272.623 817.84 271.338ZM819.944 279.101L818.005 279.591C818.331 280.878 818.645 282.169 818.949 283.465L820.896 283.008C820.59 281.701 820.272 280.399 819.944 279.101ZM821.778 286.918L819.823 287.342C820.104 288.638 820.374 289.938 820.633 291.243L822.595 290.853C822.334 289.537 822.061 288.226 821.778 286.918ZM823.347 294.812L821.379 295.168C821.498 295.825 821.614 296.482 821.727 297.14C821.841 297.805 821.951 298.469 822.055 299.132L824.03 298.821C823.925 298.149 823.814 297.476 823.698 296.801C823.584 296.137 823.467 295.474 823.347 294.812ZM824.6 302.841L822.616 303.092C822.783 304.407 822.929 305.718 823.054 307.024L825.045 306.833C824.918 305.507 824.769 304.176 824.6 302.841ZM825.365 310.797L823.369 310.927C823.456 312.254 823.522 313.577 823.566 314.894L825.565 314.826C825.52 313.488 825.453 312.145 825.365 310.797ZM825.638 318.865L823.638 318.869C823.641 320.19 823.622 321.505 823.583 322.815L825.582 322.875C825.622 321.543 825.641 320.207 825.638 318.865ZM825.399 326.858L823.403 326.734C823.32 328.061 823.217 329.383 823.092 330.7L825.083 330.889C825.21 329.55 825.315 328.207 825.399 326.858ZM824.637 334.889L822.653 334.635C822.486 335.942 822.298 337.244 822.089 338.541L824.063 338.859C824.276 337.541 824.467 336.217 824.637 334.889ZM823.361 342.81L821.398 342.428C821.146 343.724 820.873 345.015 820.58 346.301L822.529 346.746C822.828 345.439 823.105 344.127 823.361 342.81ZM821.573 350.651L819.638 350.145C819.304 351.421 818.949 352.692 818.575 353.959L820.493 354.526C820.873 353.239 821.233 351.948 821.573 350.651ZM819.296 358.354L817.397 357.727C816.984 358.978 816.552 360.224 816.101 361.465L817.981 362.148C818.439 360.889 818.877 359.624 819.296 358.354ZM816.548 365.913L814.689 365.174C814.201 366.4 813.694 367.622 813.169 368.839L815.005 369.632C815.538 368.397 816.052 367.157 816.548 365.913ZM813.367 373.281L811.554 372.437C810.997 373.631 810.422 374.821 809.83 376.007L811.618 376.901C812.219 375.699 812.802 374.493 813.367 373.281ZM809.762 380.492L807.998 379.55C807.378 380.709 806.742 381.864 806.088 383.015L807.827 384.003C808.489 382.837 809.134 381.667 809.762 380.492ZM805.807 387.457L804.093 386.426C803.411 387.558 802.713 388.686 801.999 389.81L803.687 390.883C804.41 389.745 805.117 388.604 805.807 387.457ZM801.469 394.281L799.807 393.168C799.079 394.255 798.336 395.337 797.577 396.416L799.213 397.567C799.98 396.476 800.732 395.38 801.469 394.281ZM796.874 400.817L795.263 399.631C794.477 400.699 793.676 401.762 792.86 402.821L794.445 404.041C795.269 402.971 796.079 401.896 796.874 400.817ZM791.934 407.232L790.375 405.979C789.557 406.998 788.725 408.012 787.879 409.023L789.413 410.306C790.267 409.286 791.107 408.261 791.934 407.232ZM786.812 413.355L785.303 412.043C784.431 413.046 783.546 414.045 782.648 415.04L784.132 416.38C785.039 415.376 785.932 414.368 786.812 413.355ZM781.385 419.368L779.925 418.002C779.031 418.957 778.126 419.908 777.208 420.856L778.645 422.247C779.57 421.291 780.484 420.332 781.385 419.368ZM775.834 425.103L774.42 423.688C773.479 424.629 772.527 425.565 771.563 426.499L772.954 427.936C773.925 426.995 774.886 426.051 775.834 425.103ZM770.007 430.743L768.639 429.284C767.684 430.18 766.72 431.072 765.744 431.96L767.091 433.438C768.073 432.544 769.046 431.645 770.007 430.743ZM764.113 436.112L762.787 434.615C761.791 435.496 760.785 436.374 759.769 437.249L761.073 438.765C762.096 437.884 763.11 437 764.113 436.112ZM757.973 441.396L756.689 439.863C755.679 440.708 754.66 441.55 753.632 442.389L754.896 443.939C755.931 443.095 756.957 442.247 757.973 441.396ZM751.785 446.444L750.54 444.879C749.5 445.706 748.452 446.529 747.394 447.35L748.62 448.93C749.684 448.105 750.739 447.276 751.785 446.444ZM745.401 451.396L744.194 449.801C743.133 450.604 742.064 451.404 740.986 452.201L742.174 453.809C743.258 453.008 744.334 452.204 745.401 451.396ZM738.957 456.16L737.786 454.539C736.712 455.316 735.629 456.089 734.539 456.859L735.693 458.493C736.789 457.718 737.877 456.941 738.957 456.16ZM732.381 460.806L731.244 459.161C730.138 459.925 729.025 460.687 727.904 461.445L729.024 463.102C730.151 462.34 731.27 461.575 732.381 460.806ZM725.714 465.317L724.609 463.65C723.507 464.38 722.397 465.107 721.281 465.832L722.37 467.51C723.491 466.782 724.606 466.051 725.714 465.317ZM718.985 469.685L717.912 467.997C716.782 468.716 715.645 469.432 714.501 470.145L715.56 471.842C716.708 471.126 717.85 470.407 718.985 469.685ZM712.12 473.967L711.076 472.261C709.951 472.949 708.82 473.634 707.683 474.317L708.712 476.032C709.854 475.346 710.99 474.658 712.12 473.967ZM705.268 478.08L704.253 476.357C703.103 477.035 701.948 477.709 700.787 478.381L701.788 480.112C702.954 479.438 704.114 478.76 705.268 478.08ZM698.274 482.128L697.285 480.389C696.127 481.048 694.963 481.704 693.793 482.357L694.768 484.103C695.942 483.448 697.111 482.789 698.274 482.128ZM691.276 486.037L690.313 484.284C689.148 484.923 687.978 485.561 686.802 486.195L687.752 487.955C688.932 487.318 690.106 486.679 691.276 486.037ZM684.197 489.858L683.26 488.091C682.074 488.721 680.883 489.348 679.687 489.972L680.612 491.745C681.812 491.118 683.007 490.489 684.197 489.858ZM677.046 493.592L676.132 491.813C674.954 492.418 673.771 493.021 672.583 493.621L673.485 495.406C674.677 494.804 675.864 494.199 677.046 493.592ZM669.898 497.206L669.006 495.415C667.81 496.011 666.609 496.604 665.403 497.195L666.283 498.991C667.492 498.398 668.697 497.803 669.898 497.206ZM662.643 500.761L661.773 498.96C660.573 499.539 659.369 500.116 658.16 500.69L659.019 502.496C660.231 501.92 661.439 501.342 662.643 500.761ZM655.402 504.202L654.554 502.391C653.348 502.956 652.138 503.518 650.924 504.078L651.762 505.894C652.979 505.333 654.193 504.769 655.402 504.202ZM648.099 507.572L647.272 505.752C646.05 506.307 644.825 506.86 643.596 507.411L644.414 509.236C645.646 508.684 646.875 508.129 648.099 507.572ZM640.736 510.872L639.928 509.043C638.714 509.58 637.496 510.114 636.275 510.646L637.074 512.479C638.298 511.946 639.519 511.41 640.736 510.872ZM633.391 514.073L632.601 512.235C631.373 512.763 630.142 513.288 628.908 513.811L629.688 515.653C630.926 515.128 632.16 514.602 633.391 514.073ZM625.966 517.219L625.195 515.374C623.959 515.891 622.72 516.405 621.477 516.917L622.24 518.766C623.485 518.253 624.727 517.737 625.966 517.219ZM618.537 520.283L617.784 518.43C616.55 518.932 615.313 519.432 614.073 519.93L614.818 521.786C616.061 521.287 617.3 520.786 618.537 520.283ZM611.082 523.276L610.345 521.417C609.1 521.911 607.852 522.402 606.602 522.891L607.33 524.754C608.583 524.263 609.834 523.771 611.082 523.276ZM603.562 526.218L602.842 524.352C601.601 524.831 600.357 525.308 599.111 525.783L599.824 527.652C601.072 527.176 602.318 526.698 603.562 526.218ZM596.073 529.072L595.368 527.2C594.118 527.671 592.866 528.139 591.611 528.605L592.308 530.48C593.565 530.013 594.82 529.544 596.073 529.072ZM588.53 531.875L587.841 529.997C586.582 530.459 585.321 530.919 584.057 531.377L584.738 533.257C586.004 532.799 587.268 532.338 588.53 531.875ZM580.957 534.619L580.283 532.736C579.028 533.185 577.77 533.632 576.511 534.077L577.178 535.963C578.439 535.517 579.699 535.069 580.957 534.619ZM573.388 537.295L572.728 535.406C571.465 535.847 570.201 536.286 568.934 536.723L569.586 538.614C570.855 538.176 572.122 537.736 573.388 537.295ZM565.775 539.921L565.13 538.027C564.693 538.176 564.256 538.325 563.819 538.473C562.987 538.755 562.153 539.037 561.32 539.318L561.958 541.213C563.232 540.784 564.504 540.354 565.775 539.921ZM558.153 542.486L557.522 540.588C556.255 541.01 554.986 541.43 553.715 541.847L554.34 543.747C555.612 543.329 556.883 542.909 558.153 542.486ZM550.517 544.996L549.9 543.094C548.626 543.507 547.352 543.918 546.076 544.328L546.687 546.232C547.965 545.822 549.242 545.41 550.517 544.996ZM542.848 547.457L542.244 545.55C540.97 545.954 539.694 546.356 538.417 546.756L539.015 548.665C540.294 548.264 541.572 547.861 542.848 547.457ZM535.18 549.86L534.588 547.949C533.31 548.345 532.032 548.738 530.752 549.13L531.337 551.043C532.619 550.65 533.9 550.256 535.18 549.86ZM527.489 552.213L526.91 550.299C526.384 550.458 525.857 550.617 525.33 550.776C524.575 551.003 523.819 551.23 523.063 551.456L523.636 553.372C524.921 552.988 526.206 552.602 527.489 552.213ZM519.779 554.519L519.212 552.601C517.929 552.98 516.645 553.357 515.361 553.732L515.922 555.652C517.208 555.276 518.494 554.898 519.779 554.519ZM512.06 556.773L511.505 554.851C510.22 555.222 508.933 555.592 507.646 555.959L508.195 557.882C509.484 557.514 510.772 557.145 512.06 556.773ZM504.326 558.979L503.783 557.054C502.495 557.418 501.207 557.779 499.918 558.138L500.455 560.065C501.746 559.705 503.036 559.343 504.326 558.979ZM496.577 561.139L496.046 559.211C494.755 559.567 493.463 559.92 492.171 560.272L492.696 562.202C493.99 561.85 495.284 561.495 496.577 561.139ZM488.814 563.253L488.294 561.322C487.002 561.669 485.709 562.015 484.417 562.359L484.931 564.292C486.225 563.947 487.52 563.601 488.814 563.253ZM481.046 565.319L480.538 563.385C479.243 563.725 477.948 564.063 476.654 564.4L477.157 566.336C478.453 565.999 479.75 565.66 481.046 565.319ZM473.257 567.343L472.759 565.406C471.461 565.739 470.163 566.07 468.865 566.4L469.357 568.338C470.657 568.009 471.957 567.677 473.257 567.343ZM465.458 569.322L464.972 567.382C463.674 567.707 462.377 568.031 461.08 568.352L461.561 570.293C462.86 569.972 464.159 569.648 465.458 569.322ZM457.665 571.253L457.19 569.311C455.885 569.63 454.582 569.947 453.278 570.263L453.749 572.207C455.054 571.891 456.359 571.573 457.665 571.253ZM449.831 573.149L449.366 571.204C448.063 571.515 446.76 571.825 445.457 572.133L445.917 574.079C447.221 573.771 448.526 573.461 449.831 573.149ZM442.006 574.997L441.552 573.049C440.251 573.353 438.95 573.655 437.65 573.954L438.1 575.903C439.401 575.603 440.703 575.301 442.006 574.997ZM434.18 576.801L433.736 574.851C432.425 575.15 431.114 575.446 429.805 575.741L430.244 577.692C431.555 577.397 432.867 577.1 434.18 576.801ZM426.314 578.571L425.88 576.618C424.573 576.909 423.266 577.197 421.961 577.483L422.389 579.437C423.696 579.15 425.005 578.861 426.314 578.571ZM418.471 580.291L418.048 578.336C416.743 578.619 415.439 578.9 414.137 579.178L414.555 581.134C415.859 580.855 417.165 580.574 418.471 580.291ZM410.601 581.975L410.187 580.018C408.872 580.295 407.558 580.571 406.246 580.845L406.654 582.803C407.968 582.529 409.284 582.253 410.601 581.975ZM402.716 583.618L402.313 581.659C401.003 581.928 399.695 582.196 398.389 582.461L398.786 584.421C400.095 584.155 401.404 583.888 402.716 583.618ZM394.867 585.212L394.474 583.251C393.153 583.515 391.834 583.778 390.517 584.038L390.905 586C392.224 585.739 393.544 585.476 394.867 585.212ZM386.942 586.778L386.559 584.815C385.242 585.072 383.926 585.326 382.612 585.579L382.99 587.543C384.305 587.29 385.623 587.035 386.942 586.778ZM379.05 588.295L378.677 586.33C377.367 586.579 376.06 586.825 374.754 587.069L375.122 589.035C376.429 588.79 377.738 588.544 379.05 588.295ZM371.16 589.77L370.797 587.803C369.47 588.048 368.146 588.29 366.823 588.53L367.18 590.498C368.505 590.258 369.831 590.015 371.16 589.77ZM363.216 591.212L362.863 589.244C361.546 589.479 360.231 589.713 358.918 589.944L359.265 591.914C360.58 591.682 361.896 591.448 363.216 591.212Z" fill="white"/>
</svg>
