<svg width="46" height="46" viewBox="0 0 46 46" fill="none" xmlns="http://www.w3.org/2000/svg">
<path fill-rule="evenodd" clip-rule="evenodd" d="M1.13406 21.9387C1.13406 9.82557 10.959 0 23.0726 0C35.1858 0 45.0107 9.8257 45.011 21.9389C45.011 34.0523 35.1861 43.8773 23.0727 43.8773C19.3631 43.88 15.7133 42.9398 12.467 41.1444L0.320801 45.0373L4.27894 33.2711C2.28372 29.9635 1.13406 26.0811 1.13406 21.9387Z" fill="white"/>
<path fill-rule="evenodd" clip-rule="evenodd" d="M1.13406 21.9387C1.13406 9.82557 10.959 0 23.0726 0C35.1858 0 45.0107 9.8257 45.011 21.9389C45.011 34.0523 35.1861 43.8773 23.0727 43.8773C19.3631 43.88 15.7133 42.9398 12.467 41.1444L0.320801 45.0373L4.27894 33.2711C2.28372 29.9635 1.13406 26.0811 1.13406 21.9387Z" fill="white"/>
<path d="M17.9206 12.8627C17.5629 12.0059 17.2918 11.9735 16.7495 11.9515C16.5438 11.9381 16.3377 11.9312 16.1314 11.9302C15.4263 11.9302 14.6889 12.1362 14.2442 12.5916C13.7022 13.1446 12.3574 14.435 12.3574 17.081C12.3574 19.7272 14.2878 22.2864 14.5479 22.6445C14.819 23.0019 18.3113 28.511 23.7334 30.756C27.9734 32.5129 29.2316 32.35 30.1966 32.144C31.6062 31.8403 33.374 30.7988 33.8187 29.5412C34.2634 28.283 34.2634 27.2095 34.133 26.9816C34.003 26.7539 33.6447 26.6242 33.1029 26.3528C32.5609 26.0815 29.9254 24.7803 29.4265 24.6068C28.9382 24.4224 28.4722 24.4878 28.1036 25.0083C27.583 25.7348 27.0735 26.4726 26.6611 26.9169C26.3357 27.2639 25.8041 27.3073 25.3598 27.123C24.7632 26.8737 23.0934 26.2875 21.0327 24.4551C19.4385 23.0347 18.3541 21.2672 18.0398 20.736C17.7251 20.194 18.0073 19.879 18.2566 19.5863C18.5278 19.2499 18.7879 19.0115 19.0592 18.6968C19.3303 18.3824 19.4821 18.2197 19.6557 17.8508C19.8404 17.4931 19.7099 17.1243 19.58 16.853C19.4497 16.582 18.3652 13.9359 17.9206 12.8627Z" fill="#53328C"/>
</svg>
